((("auth" .
   [1 0 0 0])
  ("threading" .
   [0 0 0 0 0 0 1 0 0])
  ("getlist" .
   [0 0 1 0 0 0 0])
  ("objects" .
   [0 0 0 0 1 0 0])
  ("TestCases" .
   [0 0 0 1 0 0 0 0 0])
  ("nodes" .
   [1 0 0 0 0])
  ("json" .
   [0 0 1 0])
  ("name" .
   [1 0 0 1])
  ("task_ip" .
   [0 0 0 1 1 0 0])
  ("send_task" .
   [0 0 0 0 0 0 0 1 0])
  ("port" .
   [3 0 0 0])
  ("host" .
   [2 0 0 0])
  ("form" .
   [0 0 0 1])
  ("send" .
   [1 0 0 1])
  ("conn" .
   [3 0 1 0])
  ("__name__" .
   [0 0 0 0 0 2 0 0])
  ("2307" .
   [3 0 0 0])
  ("PORT" .
   [2 0 1 0])
  ("HOST" .
   [2 0 0 1])
  ("socket" .
   [2 0 0 0 3 0])
  ("path" .
   [2 0 0 0])
  ("param" .
   [0 0 1 0 0])
  ("self" .
   [6 0 0 2])
  ("handle" .
   [0 0 0 0 1 0])
  ("def" .
   [5 0 0])
  ("BaseRequestHandler" .
   [0 0 1 0 0 0 0 0 0 0 0 0 0 0 0 0 0 0])
  ("class" .
   [0 0 1 0 0])
  ("SocketServer" .
   [0 0 1 1 0 0 0 0 0 0 0 0])
  ("desktop-load-default" .
   [0 0 0 0 0 0 0 0 0 0 1 0 0 0 0 0 0 0 0 0])
  ("desktop-enable" .
   [0 0 0 0 0 0 0 0 0 1 0 0 0 0])
  ("desktop" .
   [0 0 0 1 0 0 0])
  ("setq" .
   [1 0 0 0])
  ("color-theme-mode" .
   [0 0 0 0 0 0 0 0 1 0 0 0 0 0 0 0])
  ("color-theme-initialize" .
   [0 0 0 0 0 0 0 0 0 0 0 0 0 0 0 2 0 0 0 0 0 0])
  ("load-path" .
   [0 0 0 0 0 0 0 1 0])
  ("add-to-list" .
   [0 0 0 0 0 0 1 0 0 0 0])
  ("/home/dmitry/.emacs.d/tango-theme.el" .
   [0 0 0 0 0 0 0 0 0 0 0 0 0 0 0 0 0 0 0 0 0 0 0 1 0 0 0 0 0 0 0 0 0 0 0 0])
  ("/home/dmitry/.emacs.d/" .
   [0 0 0 0 0 0 0 0 0 0 0 0 0 0 1 0 0 0 0 0 0 0])
  ("/home/dmitry/" .
   [0 0 0 0 0 0 1 1 0 0 0 0 0])
  ("import" .
   [4 0 0 2 0 0])
  ("from" .
   [2 0 0 0])
  ("ADMINS" .
   [0 0 1 0 0 0])
  ("require" .
   [0 0 0 7 0 0 0])
  ("color-theme" .
   [0 0 1 1 5 0 0 1 0 1 0])
  ("load" .
   [1 0 0 0])
  ("eval" .
   [1 0 0 0])
  ("eval-after-load" .
   [0 0 0 0 0 0 2 0 0 0 0 0 0 0 0])
  ("progn" .
   [1 0 0 1 0])
  ("/home/dmitry/.emacs.d/color-theme-tango.el" .
   [0 0 0 0 0 0 0 0 0 0 0 0 0 0 0 0 0 0 0 0 0 0 0 1 0 0 0 0 0 0 0 0 0 0 0 0 0 0 0 0 0 0])
  ("load-file" .
   [1 0 0 0 0 0 0 0 0])
  ("color-theme-midnight" .
   [1 0 0 0 0 0 0 0 0 0 0 0 0 0 0 0 0 0 0 0])
  ("color-theme-solarized" .
   [0 0 0 0 0 0 0 0 0 0 0 0 1 3 0 0 0 0 0 0 0])
  ("color-theme-solarized-dark" .
   [0 0 0 0 0 0 0 0 0 0 0 0 0 0 0 0 0 0 0 0 0 0 1 0 0 0])
  ("t" .
   [1])
  ("tool-bar-mode" .
   [0 0 0 1 0 0 0 0 0 0 0 0 0])
  ("data" .
   [2 0 0 0])
  ("open" .
   [1 0 0 0])
  ("filet" .
   [2 0 1 2 2])
  ("read" .
   [1 0 0 0])
  ("return" .
   [1 0 0 1 0 0])
  ("tcp_client" .
   [0 0 0 1 0 0 0 0 0 0])
  ("/home/dmitry/Desktop/" .
   [0 0 0 0 0 0 0 0 0 0 0 0 0 1 0 0 0 0 0 0 0])
  ("/home/dmitry/Desktop/jsgantt/" .
   [0 0 0 0 0 0 0 0 0 0 0 0 0 0 0 0 0 0 0 0 0 1 0 0 0 0 0 0 0])
  ("/home/dmitry/Desktop/jsgantt/jsgantt.js" .
   [0 0 0 0 0 0 0 0 0 0 0 0 0 0 0 0 0 0 0 0 0 0 0 0 0 0 0 0 0 1 0 0 0 0 0 0 0 0 0])
  ("os" .
   [1 0])
  ("basename" .
   [0 0 0 0 1 0 0 0])
  ("send_info" .
   [0 0 0 0 0 0 1 0 0])
  ("sendall" .
   [0 0 0 1 1 0 0])
  ("send_file" .
   [0 0 0 0 1 0 1 0 0])
  ("if" .
   [2 0])
  ("recv" .
   [0 0 0 1])
  ("bytes" .
   [1 0 1 0 0])
  ("in" .
   [1 0])
  ("else" .
   [1 0 0 0])
  ("while" .
   [1 0 0 0 0])
  ("print" .
   [5 0 0 0 0])
  ("sock" .
   [1 0 0 0])
  ("main" .
   [1 0 2 0])))
